nao_parametrica – FIP_606
…
Teste Não Paramétrico

Os testes não paramétricos são métodos estatísticos que não exigem que os dados sigam uma distribuição específica, como a normal. Por isso, são úteis quando as suposições dos testes paramétricos não são atendidas. Eles trabalham com dados em forma de postos (ordens) ou categorias e são ideais para amostras pequenas, dados assimétricos ou com outliers.

Exemplo: conjunto InsectSprays: efeito de inseticida na mortalidade de insetos. Dados no pacote datasets do R.

Carregando o conjunto de dados

Code

insects <- tibble::as_tibble(InsectSprays) |>
  dplyr::select(spray, count)
insects

# A tibble: 72 × 2
   spray count
   <fct> <dbl>
 1 A        10
 2 A         7
 3 A        20
 4 A        14
 5 A        14
 6 A        12
 7 A        10
 8 A        23
 9 A        17
10 A        20
# ℹ 62 more rows
…
