importando_dados – FIP_606
…
write_xlsx(Orange, path = "Orange.xlsx")

Dados em arquivo csv

O pacote readr do tidyverse é utilizado para importar arquivos de texto, como .txt ou .csv, para o R.

Usando as funções como: read.csv() ou read_csv(), com o nome do arquivo entre parênteses.

Code

library(tidyverse)
read_csv("curve.csv")

# A tibble: 245 × 1
   `code;year;trial;state;dose;replicate;germination`
   <chr>                                             
 1 FGT05;2007;1;RS;0,00;1;46                         
 2 FGT05;2007;1;RS;0,00;2;44                         
 3 FGT05;2007;1;RS;0.05;1;18                         
 4 FGT05;2007;1;RS;0.05;2;24                         
 5 FGT05;2007;1;RS;0.5;1;9                           
 6 FGT05;2007;1;RS;0.5;2;11                          
 7 FGT05;2007;1;RS;1.00;1;0                          
 8 FGT05;2007;1;RS;1,00;2;0                          
 9 FGT05;2007;1;RS;5.00;1;0                          
10 FGT05;2007;1;RS;5.00;2;0                          
# ℹ 235 more rows

Code

curve1 <- read_csv("curve.csv") # Atribuiu a um data frame
curve1 

# A tibble: 245 × 1
   `code;year;trial;state;dose;replicate;germination`
   <chr>                                             
 1 FGT05;2007;1;RS;0,00;1;46                         
 2 FGT05;2007;1;RS;0,00;2;44                         
 3 FGT05;2007;1;RS;0.05;1;18                         
 4 FGT05;2007;1;RS;0.05;2;24                         
 5 FGT05;2007;1;RS;0.5;1;9                           
 6 FGT05;2007;1;RS;0.5;2;11                          
 7 FGT05;2007;1;RS;1.00;1;0                          
 8 FGT05;2007;1;RS;1,00;2;0                          
 9 FGT05;2007;1;RS;5.00;1;0                          
10 FGT05;2007;1;RS;5.00;2;0                          
# ℹ 235 more rows
…
